[24-07-2017 07:42:16] PayPal\Core\PayPalHttpConnection : INFO: POST https://api.sandbox.paypal.com/v1/oauth2/token
[24-07-2017 07:42:18] PayPal\Core\PayPalHttpConnection : DEBUG: Request Headers 	: POST /v1/oauth2/token HTTP/1.1, Host: api.sandbox.paypal.com, User-Agent: PayPalSDK/PayPal-PHP-SDK 1.12.0 (platform-ver=7.0.9; bit=32; os=Windows_NT_6.3; machine=i586; crypto-lib-ver=1.0.2h; curl=7.49.1), Authorization: Basic QWNobmw3STVmM193aG5hZHV4UkxhREpRcjM1bzBzcmlKR3RWYkRER1ZiTXRTVEk0c25SNl9ReF9UM1M2bmhUa3JOUm92YmpOTVBkSjB4YVg6RUJZQ0xfZVpEdEdNZVN2RUlDRF9LaFl6eWxVWEVzWm5CUFNHVW5WTS11S2p0dUNBREM1NEtZS2lCeGxoY3QwTHBEUnhubFJiVU5wdFR3ejk=, Accept: */*, Content-Length: 29, Content-Type: application/x-www-form-urlencoded, , 
[24-07-2017 07:42:18] PayPal\Core\PayPalHttpConnection : DEBUG: Request Data		: grant_type=client_credentials
--------------------------------------------------------------------------------------------------------------------------------

[24-07-2017 07:42:18] PayPal\Core\PayPalHttpConnection : INFO: Response Status 	: 200
[24-07-2017 07:42:18] PayPal\Core\PayPalHttpConnection : DEBUG: Response Headers	: Date: Mon, 24 Jul 2017 07:40:37 GMT, Server: Apache, paypal-debug-id: ab8759365a128, X-PAYPAL-TOKEN-SERVICE: IAAS, HTTP_X_PP_AZ_LOCATOR: sandbox.slc, Paypal-Debug-Id: ab8759365a128, Set-Cookie: X-PP-SILOVER=; Expires=Thu, 01 Jan 1970 00:00:01 GMT, Vary: Authorization, Content-Length: 548, Connection: close, Content-Type: application/json, 
[24-07-2017 07:42:18] PayPal\Core\PayPalHttpConnection : DEBUG: Response Data 	: {"scope":"https://uri.paypal.com/services/paypalhere https://api.paypal.com/v1/payments/.* https://api.paypal.com/v1/payments/sale/.*/refund https://uri.paypal.com/services/applications/webhooks openid https://uri.paypal.com/payments/payouts https://api.paypal.com/v1/payments/refund","nonce":"2017-07-24T07:40:37Zwuqvs0o61-cJKE3Jq6p-aL0U8N3aBTJ29LoSH-cEogM","access_token":"A21AAEEBmgQnRR7xbnCBIR1iA35BCUfbJBL2QScjUxQhE9hXHYJGN7rJVuYcYc-fgN5iVJktL7TdeB5e4bvSbmF8bzpHvCZDg","token_type":"Bearer","app_id":"APP-80W284485P519543T","expires_in":32400}

================================================================================================================================

[24-07-2017 07:42:18] PayPal\Core\PayPalHttpConnection : INFO: POST https://api.sandbox.paypal.com/v1/payments/payment
[24-07-2017 07:42:20] PayPal\Core\PayPalHttpConnection : DEBUG: Request Headers 	: POST /v1/payments/payment HTTP/1.1, Host: api.sandbox.paypal.com, Accept: */*, Content-Type: application/json, User-Agent: PayPalSDK/PayPal-PHP-SDK 1.12.0 (platform-ver=7.0.9; bit=32; os=Windows_NT_6.3; machine=i586; crypto-lib-ver=1.0.2h; curl=7.49.1), Authorization: Bearer A21AAEEBmgQnRR7xbnCBIR1iA35BCUfbJBL2QScjUxQhE9hXHYJGN7rJVuYcYc-fgN5iVJktL7TdeB5e4bvSbmF8bzpHvCZDg, Content-Length: 365, , 
[24-07-2017 07:42:20] PayPal\Core\PayPalHttpConnection : DEBUG: Request Data		: {"intent":"Sale","payer":{"payment_method":"paypal"},"redirect_urls":{"return_url":"http://localhost:8000/payment/status","cancel_url":"http://localhost:8000/payment/status"},"transactions":[{"amount":{"currency":"USD","total":"0"},"item_list":{"items":[{"name":"Discount","currency":"USD","quantity":1,"price":"0"}]},"description":"Your transaction description"}]}
--------------------------------------------------------------------------------------------------------------------------------

[24-07-2017 07:42:20] PayPal\Core\PayPalHttpConnection : INFO: Response Status 	: 400
[24-07-2017 07:42:20] PayPal\Core\PayPalHttpConnection : DEBUG: Response Headers	: Date: Mon, 24 Jul 2017 07:40:39 GMT, Server: Apache, paypal-debug-id: 1555080531eb5, Content-Language: *, Connection: close, HTTP_X_PP_AZ_LOCATOR: sandbox.slc, Paypal-Debug-Id: 1555080531eb5, Set-Cookie: X-PP-SILOVER=; Expires=Thu, 01 Jan 1970 00:00:01 GMT, Vary: Authorization, Content-Length: 251, Content-Type: application/json, 
[24-07-2017 07:42:20] PayPal\Core\PayPalHttpConnection : ERROR: Got Http response code 400 when accessing https://api.sandbox.paypal.com/v1/payments/payment. {"name":"VALIDATION_ERROR","details":[{"field":"transactions[0].amount","issue":"Amount cannot be zero"}],"message":"Invalid request - see details","information_link":"https://developer.paypal.com/docs/api/payments/#errors","debug_id":"1555080531eb5"}
[24-07-2017 07:42:20] PayPal\Core\PayPalHttpConnection : DEBUG: 

================================================================================================================================

[24-07-2017 07:42:25] PayPal\Core\PayPalHttpConnection : INFO: POST https://api.sandbox.paypal.com/v1/payments/payment
[24-07-2017 07:42:27] PayPal\Core\PayPalHttpConnection : DEBUG: Request Headers 	: POST /v1/payments/payment HTTP/1.1, Host: api.sandbox.paypal.com, Accept: */*, Content-Type: application/json, User-Agent: PayPalSDK/PayPal-PHP-SDK 1.12.0 (platform-ver=7.0.9; bit=32; os=Windows_NT_6.3; machine=i586; crypto-lib-ver=1.0.2h; curl=7.49.1), Authorization: Bearer A21AAEEBmgQnRR7xbnCBIR1iA35BCUfbJBL2QScjUxQhE9hXHYJGN7rJVuYcYc-fgN5iVJktL7TdeB5e4bvSbmF8bzpHvCZDg, Content-Length: 365, , 
[24-07-2017 07:42:27] PayPal\Core\PayPalHttpConnection : DEBUG: Request Data		: {"intent":"Sale","payer":{"payment_method":"paypal"},"redirect_urls":{"return_url":"http://localhost:8000/payment/status","cancel_url":"http://localhost:8000/payment/status"},"transactions":[{"amount":{"currency":"USD","total":"0"},"item_list":{"items":[{"name":"Discount","currency":"USD","quantity":1,"price":"0"}]},"description":"Your transaction description"}]}
--------------------------------------------------------------------------------------------------------------------------------

[24-07-2017 07:42:27] PayPal\Core\PayPalHttpConnection : INFO: Response Status 	: 400
[24-07-2017 07:42:27] PayPal\Core\PayPalHttpConnection : DEBUG: Response Headers	: Date: Mon, 24 Jul 2017 07:40:45 GMT, Server: Apache, paypal-debug-id: 92f3db72296b, Content-Language: *, Connection: close, HTTP_X_PP_AZ_LOCATOR: sandbox.slc, Paypal-Debug-Id: 92f3db72296b, Set-Cookie: X-PP-SILOVER=; Expires=Thu, 01 Jan 1970 00:00:01 GMT, Vary: Authorization, Content-Length: 250, Content-Type: application/json, 
[24-07-2017 07:42:27] PayPal\Core\PayPalHttpConnection : ERROR: Got Http response code 400 when accessing https://api.sandbox.paypal.com/v1/payments/payment. {"name":"VALIDATION_ERROR","details":[{"field":"transactions[0].amount","issue":"Amount cannot be zero"}],"message":"Invalid request - see details","information_link":"https://developer.paypal.com/docs/api/payments/#errors","debug_id":"92f3db72296b"}
[24-07-2017 07:42:27] PayPal\Core\PayPalHttpConnection : DEBUG: 

================================================================================================================================

